<?xml version="1.0" standalone="no"?>
<svg version="1.2" xmlns="http://www.w3.org/2000/svg" xmlns:xlink="http://www.w3.org/1999/xlink" overflow="visible" preserveAspectRatio="none" viewBox="0 0 69.5 48.5" xml:space="preserve" height="14" width="21" y="0px" x="0px" id="Capa_1_1568280660053"><g transform="translate(1, 1)"><g>
	<path d="M57.843,29.75l-0.521-4.363   c-0.057-0.469-0.479-0.807-0.947-0.759c-1.723,0.177-3.289-1.079-3.494-2.797c-0.206-1.718,1.023-3.307,2.737-3.541   c0.468-0.064,0.798-0.491,0.741-0.96l-0.521-4.363c-0.09-0.753-0.468-1.427-1.065-1.896c-0.596-0.47-1.34-0.678-2.094-0.589   l-30.403,3.629c-0.746,0.089-1.414,0.46-1.882,1.046h-4.009c-1.567,0-2.842,1.275-2.842,2.842v4.394   c0,0.473,0.379,0.858,0.851,0.866c1.731,0.029,3.139,1.462,3.139,3.192s-1.408,3.162-3.139,3.191   c-0.472,0.008-0.851,0.394-0.851,0.865v4.395c0,1.566,1.275,2.842,2.842,2.842h24.388h6.231c1.567,0,2.843-1.275,2.843-2.842   v-1.336l5.51-0.656c0.752-0.09,1.427-0.469,1.896-1.064C57.723,31.248,57.934,30.504,57.843,29.75z M48.117,32.029v1.744v1.129   c0,0.613-0.498,1.111-1.111,1.111h-5.365v-1.468v-0.155c0-0.479-0.389-0.867-0.867-0.867s-0.865,0.389-0.865,0.867v0.362v1.261   H29.353h-6.406h-6.56c-0.612,0-1.11-0.5-1.11-1.111v-3.616c0.972-0.187,1.865-0.662,2.574-1.382   c0.913-0.926,1.415-2.152,1.415-3.453s-0.502-2.527-1.415-3.454c-0.708-0.719-1.602-1.194-2.574-1.381V18   c0-0.612,0.498-1.11,1.11-1.11h3.386h1.732h18.403v10.54c0,0.479,0.387,0.865,0.865,0.865s0.865-0.388,0.865-0.865V16.889h5.367   c0.613,0,1.111,0.498,1.111,1.11v3.616c-0.973,0.186-1.866,0.662-2.574,1.381c-0.913,0.927-1.415,2.152-1.415,3.454   c0,1.3,0.502,2.526,1.415,3.454c0.708,0.72,1.602,1.195,2.574,1.381V32.029z M55.895,30.773c-0.184,0.233-0.446,0.381-0.742,0.416   l-5.305,0.634v-1.315c0-0.472-0.377-0.857-0.851-0.865c-1.729-0.028-3.138-1.461-3.138-3.191s1.408-3.162,3.138-3.192   c0.472-0.008,0.851-0.393,0.851-0.865V18c0-1.567-1.274-2.842-2.842-2.842h-6.232H28.113l24.774-2.957   c0.295-0.035,0.586,0.046,0.818,0.23s0.381,0.447,0.416,0.741l0.429,3.591c-0.944,0.3-1.774,0.878-2.393,1.677   c-0.796,1.028-1.149,2.306-0.996,3.597c0.153,1.292,0.799,2.449,1.813,3.261c0.789,0.632,1.732,0.997,2.721,1.067l0.429,3.591   C56.16,30.25,56.078,30.541,55.895,30.773z" stroke-miterlimit="10" stroke-width="0.25" stroke="#000000" vector-effect="non-scaling-stroke"/>
	<path d="M41.573,30.578c-0.021-0.051-0.048-0.102-0.08-0.148   c-0.031-0.048-0.068-0.092-0.107-0.132c-0.04-0.04-0.085-0.075-0.132-0.106c-0.047-0.032-0.098-0.059-0.15-0.08   c-0.052-0.021-0.105-0.039-0.162-0.051c-0.111-0.021-0.227-0.021-0.338,0c-0.055,0.012-0.108,0.029-0.162,0.051   c-0.051,0.021-0.103,0.048-0.148,0.08c-0.047,0.031-0.091,0.067-0.131,0.106c-0.041,0.04-0.076,0.084-0.107,0.132   c-0.031,0.047-0.059,0.098-0.08,0.148c-0.021,0.053-0.039,0.107-0.05,0.163c-0.011,0.055-0.016,0.112-0.016,0.168   s0.005,0.114,0.016,0.169c0.013,0.055,0.028,0.109,0.05,0.162s0.049,0.104,0.08,0.15s0.067,0.092,0.107,0.131   c0.04,0.041,0.084,0.076,0.131,0.107s0.098,0.059,0.148,0.08c0.054,0.021,0.106,0.039,0.162,0.049   c0.058,0.012,0.113,0.018,0.17,0.018s0.112-0.006,0.168-0.018c0.057-0.011,0.11-0.027,0.162-0.049   c0.053-0.021,0.103-0.049,0.149-0.08s0.093-0.068,0.132-0.107c0.04-0.039,0.076-0.084,0.107-0.131s0.059-0.098,0.08-0.15   c0.021-0.053,0.037-0.106,0.049-0.162c0.011-0.057,0.018-0.113,0.018-0.169s-0.007-0.113-0.018-0.168   C41.611,30.686,41.596,30.631,41.573,30.578z" stroke-miterlimit="10" stroke-width="0.25" stroke="#000000" vector-effect="non-scaling-stroke"/>
</g></g></svg>